#334 - Tangiers

owner = A46
controller = A46
add_core = A46
culture = arbarani
religion = regent_court

hre = yes

base_tax = 5
base_production = 4
base_manpower = 4

trade_goods = livestock

capital = ""

is_city = yes







