namespace = aelantirspawnables

#Gommoport
country_event = {
	id = aelantirspawnables.1
	title = aelantirspawnables.1.t
	desc = aelantirspawnables.1.d
	picture = CARIBBEAN_PIRATE_FORT_eventPicture
	
	fire_only_once = yes
	
	trigger = {
		owns = 169 #Nimscodd
		has_global_flag = new_world_discovered
		is_year = 1570
		gommiochand_area = {
			is_empty = yes
			
			#has_discovered = ROOT
			
			has_empty_adjacent_province = yes
		}

				
		# OR = {	#sort this out make it so player
			# if = {
				# limit = { 
					# capital_scope = { continent = north_america
				# }
			# }
		# }
	}
	
	mean_time_to_happen = {
		months = 360
		
		modifier = {
			factor = 0.1
			current_age = age_of_revolutions
		}
		modifier = {
			factor = 0.5
			exists = A79 #gnomish hierarchy
		}
		modifier = {
			factor = 0.5
			OR = {
				exists = H31 #Zurzumexia
				exists = H32 #Mestikardu
			}
		}
		modifier = {
			factor = 0.5
			any_country = {
				capital_scope = { continent = europe }
				has_discovered = 2088
			}
		}
	}
	
	immediate = {
		
		hidden_effect = {
			
			random_province = {
				limit = {
					area = gommiochand_area
					is_empty = yes
					
					has_empty_adjacent_province = yes
					
				}
				
				save_event_target_as = spawn_province
			}
			
			random_province = {
				limit = {
					area = gommiochand_area
					is_empty = yes
					
					has_empty_adjacent_province = yes
					
					has_port = yes
				}
				
				save_event_target_as = spawn_province
			}		

			random_province = {
				limit = {
					area = gommiochand_area
					is_empty = yes
					
					has_empty_adjacent_province = yes
					
					province_id = 2088
				}
				
				save_event_target_as = spawn_province
			}
			
		}
	}
	
	option = {
		name = aelantirspawnables.1.a
		
		event_target:spawn_province = {
			create_colony = 1000
		}
		
		event_target:spawn_province = {
			cede_province = H30
		}
		
		hidden_effect = {
			H30 = {
				country_event = {
					id = anb_miscevents.7
					days = 30
				}
			}
		}
		
		adventurer_spawnable_starting_bonus = { tag = H30 }
	}
	
	option = { # play as the pirates
		name = aelantirspawnables.1.b
		trigger = {
			ai = no
		}
		event_target:spawn_province = {
			create_colony = 1000
		}
		
		event_target:spawn_province = {
			cede_province = H30
		}
		
		hidden_effect = {
			H30 = {
				country_event = { 
					id = anb_miscevents.7
					days = 30
				}
			}
		}
		
		adventurer_spawnable_starting_bonus = { tag = H30 }
		switch_tag = H30
	}
	

}

#Zurzumexia
country_event = {
	id = aelantirspawnables.2
	title = aelantirspawnables.2.t
	desc = aelantirspawnables.2.d
	picture = CARIBBEAN_PIRATE_FORT_eventPicture
	
	fire_only_once = yes
	
	trigger = {
		owns = 185 #Dragonpeaks
		has_global_flag = new_world_discovered
		is_year = 1570
		zurzumexia_area = {
			is_empty = yes
			
			#has_discovered = ROOT
			
			has_empty_adjacent_province = yes
		}
	}
	
	mean_time_to_happen = {
		months = 360
		
		modifier = {
			factor = 0.1
			current_age = age_of_revolutions
		}
		modifier = {
			factor = 0.5
			OR = {
				exists = H30 #Gommoport
				exists = H32 #Mestikardu
			}
		}
		modifier = {
			factor = 0.5
			any_country = {
				capital_scope = { continent = europe }
				has_discovered = 2078
			}
		}
	}
	
	immediate = {
	
		hidden_effect = {
		
			random_province = {
				limit = {
					area = zurzumexia_area
					is_empty = yes
					
					has_empty_adjacent_province = yes
					
				}
				
				save_event_target_as = spawn_province
			}
			
			random_province = {
				limit = {
					area = zurzumexia_area
					is_empty = yes
					
					has_empty_adjacent_province = yes
					
					has_port = yes
				}
				
				save_event_target_as = spawn_province
			}		

			random_province = {
				limit = {
					area = zurzumexia_area
					is_empty = yes
					
					has_empty_adjacent_province = yes
					
					province_id = 2078
				}
				
				save_event_target_as = spawn_province
			}
			
		}
	}
	
	option = {
		name = aelantirspawnables.1.a
		
		event_target:spawn_province = {
			create_colony = 1000
		}
		
		event_target:spawn_province = {
			cede_province = H31
		}
	
		hidden_effect = {
			H31 = {
				country_event = {
					id = anb_miscevents.7
					days = 30
				}
			}
		}
		
		adventurer_spawnable_starting_bonus = { tag = H31 }
	}
	
	option = { # play as the pirates
		name = aelantirspawnables.1.b
		trigger = {
			ai = no
		}
		event_target:spawn_province = {
			create_colony = 1000
		}
		
		event_target:spawn_province = {
			cede_province = H31
		}
		
		hidden_effect = {
			H31 = {
				country_event = { 
					id = anb_miscevents.7
					days = 30
				}
			}
		}
		
		adventurer_spawnable_starting_bonus = { tag = H31 }
		switch_tag = H31
	}
}


#Mestikardu
country_event = {
	id = aelantirspawnables.3
	title = aelantirspawnables.3.t
	desc = aelantirspawnables.3.d
	picture = CARIBBEAN_PIRATE_FORT_eventPicture
	
	fire_only_once = yes
	
	trigger = {
		owns = 723 #Baywic
		has_global_flag = new_world_discovered
		is_year = 1570
		mestiikardu_area = {
			is_empty = yes
			
			#has_discovered = ROOT
			
			has_empty_adjacent_province = yes
		}
	}
	
	mean_time_to_happen = {
		months = 360
		
		modifier = {
			factor = 0.1
			current_age = age_of_revolutions
		}
		modifier = {
			factor = 0.5
			OR = {
				exists = H30 #Gommoport
				exists = H31 #Zurzumexia
			}
		}
		modifier = {
			factor = 0.5
			any_country = {
				capital_scope = { continent = europe }
				has_discovered = 2083
			}
		}
	}
	
	immediate = {
		hidden_effect = {
			random_province = {
				limit = {
					area = mestiikardu_area
					is_empty = yes
					
					has_empty_adjacent_province = yes
					
				}
				
				save_event_target_as = spawn_province
			}
			
			random_province = {
				limit = {
					area = mestiikardu_area
					is_empty = yes
					
					has_empty_adjacent_province = yes
					
					has_port = yes
				}
				
				save_event_target_as = spawn_province
			}		

			random_province = {
				limit = {
					area = mestiikardu_area
					is_empty = yes
					
					has_empty_adjacent_province = yes
					
					province_id = 2083
				}
				
				save_event_target_as = spawn_province
			}
		}
	}
	
	option = {
		name = aelantirspawnables.1.a 
		
		event_target:spawn_province = {
			create_colony = 1000
		}
		
		event_target:spawn_province = {
			cede_province = H32
		}
		
		hidden_effect = {
			H32 = {
				country_event = { 
					id = anb_miscevents.7
					days = 30
				}
			}
		}
		
		adventurer_spawnable_starting_bonus = { tag = H32 }
	}
	
	option = { # play as the pirates
		name = aelantirspawnables.1.b
		trigger = {
			ai = no
		}
		event_target:spawn_province = {
			create_colony = 1000
		}
		
		event_target:spawn_province = {
			cede_province = H32
		}
		
		hidden_effect = {
			H32 = {
				country_event = { 
					id = anb_miscevents.7
					days = 30
				}
			}
		}
		
		adventurer_spawnable_starting_bonus = { tag = H32 }
		switch_tag = H32
	}
}



#Cestirmark
country_event = {
	id = aelantirspawnables.4
	title = aelantirspawnables.4.t
	desc = aelantirspawnables.4.d
	picture = CARIBBEAN_PIRATE_FORT_eventPicture
	
	fire_only_once = yes
	
	trigger = {
		owns = 327 #Cestaire
		has_global_flag = new_world_discovered
		current_age = age_of_reformation
		OR = {
			cestirmark_area = {
				is_empty = yes
				
				#has_discovered = ROOT
				
				has_empty_adjacent_province = yes
			}
			areatb9_area = {
				is_empty = yes
				
				#has_discovered = ROOT
				
				has_empty_adjacent_province = yes
			}
		}
	}
	
	mean_time_to_happen = {
		months = 360
		
		modifier = {
			factor = 0.5
			any_country = {
				capital_scope = { continent = europe }
				has_discovered = 1871
			}
		}
		
		modifier = {
			factor = 0.5
			is_year = 1530
		}
	}
	
	immediate = {
		hidden_effect = {
			random_province = {
				limit = {
					area = areatb9_area
					is_empty = yes
					
					has_empty_adjacent_province = yes
					
				}
				
				save_event_target_as = spawn_province
			}
			
			random_province = {
				limit = {
					area = cestirmark_area
					is_empty = yes
					
					has_empty_adjacent_province = yes
					
				}
				
				save_event_target_as = spawn_province
			}
			
			random_province = {
				limit = {
					area = areatb9_area
					is_empty = yes
					
					has_empty_adjacent_province = yes
					
					has_port = yes
				}
				
				save_event_target_as = spawn_province
			}
			
			random_province = {
				limit = {
					area = cestirmark_area
					is_empty = yes
					
					has_empty_adjacent_province = yes
					
					has_port = yes
				}
				
				save_event_target_as = spawn_province
			}		

			random_province = {
				limit = {
					area = cestirmark_area
					is_empty = yes
					
					has_empty_adjacent_province = yes
					
					province_id = 1871
				}
				
				save_event_target_as = spawn_province
			}
		}
	}
	
	option = {
		name = aelantirspawnables.1.a 
		
		event_target:spawn_province = {
			create_colony = 1000
		}
		
		event_target:spawn_province = {
			cede_province = H33
		}
		
		hidden_effect = {
			H33 = {
				country_event = { 
					id = anb_miscevents.7
					days = 30
				}
			}
		}
		
		adventurer_spawnable_starting_bonus = { tag = H33 }
	}
	
	option = { # play as the pirates
		name = aelantirspawnables.1.b
		trigger = {
			ai = no
		}
		event_target:spawn_province = {
			create_colony = 1000
		}
		
		event_target:spawn_province = {
			cede_province = H33
		}

		switch_tag = H33
		
		hidden_effect = {
			H33 = {
				country_event = { 
					id = anb_miscevents.7
					days = 30
				}
			}
		}
		
		adventurer_spawnable_starting_bonus = { tag = H33 }
		switch_tag = H33
	}
}

#Ebenmas
country_event = {
	id = aelantirspawnables.5
	title = aelantirspawnables.5.t
	desc = aelantirspawnables.5.d
	picture = CARIBBEAN_PIRATE_FORT_eventPicture
	
	fire_only_once = yes
	
	trigger = {
		owns = 75 #High Ording
		has_global_flag = new_world_discovered
		current_age = age_of_reformation
		ebenmas_area = {
			is_empty = yes
			
			#has_discovered = ROOT
			
			has_empty_adjacent_province = yes
		}
	}
	
	mean_time_to_happen = {
		months = 360
		
		modifier = {
			factor = 0.5
			any_country = {
				capital_scope = { continent = europe }
				has_discovered = 1823
			}
		}
		
		modifier = {
			factor = 0.5
			is_year = 1530
		}
	}
	
	immediate = {
		hidden_effect = {
			random_province = {
				limit = {
					area = ebenmas_area
					is_empty = yes
					
					has_empty_adjacent_province = yes
					
				}
				
				save_event_target_as = spawn_province
			}	

			random_province = {
				limit = {
					area = ebenmas_area
					is_empty = yes
					
					has_empty_adjacent_province = yes
					
					province_id = 1823
				}
				
				save_event_target_as = spawn_province
			}
		}
	}
	
	option = {
		name = aelantirspawnables.1.a 
		
		event_target:spawn_province = {
			create_colony = 1000
		}
		
		event_target:spawn_province = {
			cede_province = H34
		}
		
		hidden_effect = {
			H34 = {
				country_event = { 
					id = anb_miscevents.7
					days = 30
				}
			}
		}
		
		adventurer_spawnable_starting_bonus = { tag = H34 }
	}
	
	option = { # play as the pirates
		name = aelantirspawnables.1.b
		trigger = {
			ai = no
		}
		event_target:spawn_province = {
			create_colony = 1000
		}
		
		event_target:spawn_province = {
			cede_province = H34
		}
		
		hidden_effect = {
			H34 = {
				country_event = { 
					id = anb_miscevents.7
					days = 30
				}
			}
		}
		
		adventurer_spawnable_starting_bonus = { tag = H34 }
		switch_tag = H34
	}
}


#Corinsfield
country_event = {
	id = aelantirspawnables.6
	title = aelantirspawnables.6.t
	desc = aelantirspawnables.6.d
	picture = CARIBBEAN_PIRATE_FORT_eventPicture
	
	fire_only_once = yes
	
	trigger = {
		owns = 827 #Ionntras
		has_global_flag = new_world_discovered
		is_religion_enabled = corinite
		corinsfield_area = {
			is_empty = yes
			
			#has_discovered = ROOT
			
			has_empty_adjacent_province = yes
		}
	}
	
	mean_time_to_happen = {
		months = 360
		
		modifier = {
			factor = 0.5
			is_year = 1580
		}
		modifier = {
			factor = 0.25
			hre_leagues_enabled = yes
		}
		modifier = {
			factor = 0.5
			any_country = {
				capital_scope = { continent = europe }
				has_discovered = 2807
			}
		}

	}
	
	immediate = {
		hidden_effect = {
			random_province = {
				limit = {
					area = corinsfield_area
					is_empty = yes
					
					has_empty_adjacent_province = yes
					
				}
				
				save_event_target_as = spawn_province
			}

			random_province = {
				limit = {
					area = corinsfield_area
					is_empty = yes
					
					has_empty_adjacent_province = yes
					
					province_id = 2807
				}
				
				save_event_target_as = spawn_province
			}
		}
	}
	
	option = {
		name = aelantirspawnables.1.a 
		
		event_target:spawn_province = {
			create_colony = 1000
		}
		
		event_target:spawn_province = {
			cede_province = H35
		}
		
		hidden_effect = {
			H35 = {
				country_event = { 
					id = anb_miscevents.7
					days = 30
				}
			}
		}
		
		adventurer_spawnable_starting_bonus = { tag = H35 }
	}
	
	option = { # play as the pirates
		name = aelantirspawnables.1.b
		trigger = {
			ai = no
		}
		event_target:spawn_province = {
			create_colony = 1000
		}
		
		event_target:spawn_province = {
			cede_province = H35
		}
		
		hidden_effect = {
			H35 = {
				country_event = { 
					id = anb_miscevents.7
					days = 30
				}
			}
		}
		
		adventurer_spawnable_starting_bonus = { tag = H35 }
		switch_tag = H35
	}
}


#Valorpoint
country_event = {
	id = aelantirspawnables.7
	title = aelantirspawnables.7.t
	desc = aelantirspawnables.7.d
	picture = CARIBBEAN_PIRATE_FORT_eventPicture
	
	fire_only_once = yes
	
	trigger = {
		owns = 292 #Verne
		has_global_flag = new_world_discovered
		is_religion_enabled = corinite
		OR = {
			valorpoint_area = {
				is_empty = yes
				
				#has_discovered = ROOT
				
				has_empty_adjacent_province = yes
			}
			areatb29_area = {
				is_empty = yes
				
				#has_discovered = ROOT
				
				has_empty_adjacent_province = yes
			}
		}
	}
	
	mean_time_to_happen = {
		months = 360
		
		modifier = {
			factor = 0.5
			is_year = 1560
		}
		modifier = {
			factor = 0.25
			hre_leagues_enabled = yes
		}
		modifier = {
			factor = 0.5
			any_country = {
				capital_scope = { continent = europe }
				has_discovered = 1047
			}
		}
	}
	
	immediate = {
		hidden_effect = {
			random_province = {
				limit = {
					area = areatb29_area
					is_empty = yes
					
					has_empty_adjacent_province = yes
					
				}
				
				save_event_target_as = spawn_province
			}
			
			random_province = {
				limit = {
					area = valorpoint_area
					is_empty = yes
					
					has_empty_adjacent_province = yes
					
				}
				
				save_event_target_as = spawn_province
			}
			
			random_province = {
				limit = {
					area = areatb29_area
					is_empty = yes
					
					has_empty_adjacent_province = yes
					
					has_port = yes
				}
				
				save_event_target_as = spawn_province
			}
			
			random_province = {
				limit = {
					area = valorpoint_area
					is_empty = yes
					
					has_empty_adjacent_province = yes
					
					has_port = yes
				}
				
				save_event_target_as = spawn_province
			}		

			random_province = {
				limit = {
					area = valorpoint_area
					is_empty = yes
					
					has_empty_adjacent_province = yes
					
					province_id = 1047
				}
				
				save_event_target_as = spawn_province
			}
		}
	}
	
	option = {
		name = aelantirspawnables.1.a 
		
		event_target:spawn_province = {
			create_colony = 1000
		}
		
		event_target:spawn_province = {
			cede_province = H36
		}
		
		hidden_effect = {
			H36 = {
				country_event = { 
					id = anb_miscevents.7
					days = 30
				}
			}
		}
		
		adventurer_spawnable_starting_bonus = { tag = H36 }
	}
	
	option = { # play as the pirates
		name = aelantirspawnables.1.b
		trigger = {
			ai = no
		}
		event_target:spawn_province = {
			create_colony = 1000
		}
		
		event_target:spawn_province = {
			cede_province = H36
		}
		
		hidden_effect = {
			H36 = {
				country_event = { 
					id = anb_miscevents.7
					days = 30
				}
			}
		}
		
		adventurer_spawnable_starting_bonus = { tag = H36 }
		switch_tag = H36
	}
}

#Themaria
country_event = {
	id = aelantirspawnables.8
	title = aelantirspawnables.8.t
	desc = aelantirspawnables.8.d
	picture = CARIBBEAN_PIRATE_FORT_eventPicture
	
	fire_only_once = yes
	
	trigger = {
		owns = 267 #Themarenn
		has_global_flag = new_world_discovered
		is_year = 1570
		themaria_area = {
			is_empty = yes
			
			#has_discovered = ROOT
			
			has_empty_adjacent_province = yes
		}
	}
	
	mean_time_to_happen = {
		months = 360
		
		modifier = {
			factor = 0.5
			is_year = 1650
		}
		modifier = {
			factor = 0.5
			any_country = {
				capital_scope = { continent = europe }
				has_discovered = 1273
			}
		}
	}
	
	immediate = {
		hidden_effect = {
			random_province = {
				limit = {
					area = themaria_area
					is_empty = yes
					
					has_empty_adjacent_province = yes
					
				}
				
				save_event_target_as = spawn_province
			}
			
			random_province = {
				limit = {
					area = themaria_area
					is_empty = yes
					
					has_empty_adjacent_province = yes
					
					has_port = yes
				}
				
				save_event_target_as = spawn_province
			}		

			random_province = {
				limit = {
					area = themaria_area
					is_empty = yes
					
					has_empty_adjacent_province = yes
					
					province_id = 1273
				}
				
				save_event_target_as = spawn_province
			}
		}
	}
	
	option = {
		name = aelantirspawnables.1.a 
		
		event_target:spawn_province = {
			create_colony = 1000
		}
		
		event_target:spawn_province = {
			cede_province = H37
		}
		
		hidden_effect = {
			H37 = {
				country_event = { 
					id = anb_miscevents.7
					days = 30
				}
			}
		}
		
		adventurer_spawnable_starting_bonus = { tag = H37 }
	}
	
	option = { # play as the pirates
		name = aelantirspawnables.1.b
		trigger = {
			ai = no
		}
		event_target:spawn_province = {
			create_colony = 1000
		}
		
		event_target:spawn_province = {
			cede_province = H37
		}
		
		hidden_effect = {
			H37 = {
				country_event = { 
					id = anb_miscevents.7
					days = 30
				}
			}
		}
		
		adventurer_spawnable_starting_bonus = { tag = H37 }
		switch_tag = H37
	}
}


#Zanlib
country_event = {
	id = aelantirspawnables.9
	title = aelantirspawnables.9.t
	desc = aelantirspawnables.9.d
	picture = CARIBBEAN_PIRATE_FORT_eventPicture
	
	fire_only_once = yes
	
	trigger = {
		owns = 658 #Garlas-kel
		NOT = { has_country_modifier = monstrous_nation }
		has_global_flag = new_world_discovered
		current_age = age_of_reformation
		OR = {
			zanlib_area = {
				is_empty = yes
				
				#has_discovered = ROOT
				
				has_empty_adjacent_province = yes
			}
			areatb15_area = {
				is_empty = yes
				
				#has_discovered = ROOT
				
				has_empty_adjacent_province = yes
			}
		}
	}
	
	mean_time_to_happen = {
		months = 360
		
		modifier = {
			factor = 0.5
			any_country = {
				capital_scope = { continent = europe }
				has_discovered = 1030
			}
		}
		modifier = {
			factor = 0.5
			is_year = 1530
		}
	}
	
	immediate = {
		hidden_effect = {
			random_province = {
				limit = {
					area = areatb15_area
					is_empty = yes
					
					has_empty_adjacent_province = yes
					
				}
				
				save_event_target_as = spawn_province
			}
			
			random_province = {
				limit = {
					area = zanlib_area
					is_empty = yes
					
					has_empty_adjacent_province = yes
					
				}
				
				save_event_target_as = spawn_province
			}
			
			random_province = {
				limit = {
					area = areatb15_area
					is_empty = yes
					
					has_empty_adjacent_province = yes
					
					has_port = yes
				}
				
				save_event_target_as = spawn_province
			}	
			
			random_province = {
				limit = {
					area = zanlib_area
					is_empty = yes
					
					has_empty_adjacent_province = yes
					
					has_port = yes
				}
				
				save_event_target_as = spawn_province
			}		

			random_province = {
				limit = {
					area = zanlib_area
					is_empty = yes
					
					has_empty_adjacent_province = yes
					
					province_id = 1030
				}
				
				save_event_target_as = spawn_province
			}
		}
	}
	
	option = {
		name = aelantirspawnables.1.a 
		
		event_target:spawn_province = {
			create_colony = 1000
		}
		
		event_target:spawn_province = {
			cede_province = H38
		}
		
		hidden_effect = {
			H38 = {
				country_event = { 
					id = anb_miscevents.7
					days = 30
				}
			}
		}
		
		adventurer_spawnable_starting_bonus = { tag = H38 }
	}
	
	option = { # play as the pirates
		name = aelantirspawnables.1.b
		trigger = {
			ai = no
		}
		event_target:spawn_province = {
			create_colony = 1000
		}
		
		event_target:spawn_province = {
			cede_province = H38
		}
		
		hidden_effect = {
			H38 = {
				country_event = { 
					id = anb_miscevents.7
					days = 30
				}
			}
		}
		
		adventurer_spawnable_starting_bonus = { tag = H38 }
		switch_tag = H38
	}
}


#Ozgarom
country_event = {
	id = aelantirspawnables.10
	title = aelantirspawnables.10.t
	desc = aelantirspawnables.10.d
	picture = CARIBBEAN_PIRATE_FORT_eventPicture
	
	fire_only_once = yes
	
	trigger = {
		num_of_provinces_owned_or_owned_by_non_sovereign_subjects_with = {
			value = 5
			has_orcish_minority_trigger = yes
			OR = { 
				continent = north_america
				continent = south_america
			}
		}
		is_subject = no
		has_global_flag = new_world_discovered
		greenfort_area = {
			is_empty = yes
			
			#has_discovered = ROOT
			
			has_empty_adjacent_province = yes
		}
	}
	
	mean_time_to_happen = {
		months = 360
		
		
		modifier = {
			factor = 0.5
			any_country = {
				capital_scope = { continent = europe }
				has_discovered = 2197
			}
		}
	}
	
	immediate = {
		hidden_effect = {
		random_province = {
			limit = {
				area = greenfort_area
				is_empty = yes
				
				has_empty_adjacent_province = yes
				
			}
			
			save_event_target_as = spawn_province
		}
		
		random_province = {
			limit = {
				area = greenfort_area
				is_empty = yes
				
				has_empty_adjacent_province = yes
				
				has_port = yes
			}
			
			save_event_target_as = spawn_province
		}		

		random_province = {
			limit = {
				area = greenfort_area
				is_empty = yes
				
				has_empty_adjacent_province = yes
				
				province_id = 2197
			}
			
			save_event_target_as = spawn_province
		}
		}
	}
	
	option = {
		name = aelantirspawnables.1.a 
		
		event_target:spawn_province = {
			create_colony = 1000
		}
		
		event_target:spawn_province = {
			cede_province = H39
		}
		
		hidden_effect = {
			H39 = {
				country_event = { 
					id = anb_miscevents.7
					days = 30
				}
			}
		}
		
		adventurer_spawnable_starting_bonus = { tag = H39 }
	}
	
	option = { # play as the pirates
		name = aelantirspawnables.1.b
		trigger = {
			ai = no
		}
		event_target:spawn_province = {
			create_colony = 1000
		}
		
		event_target:spawn_province = {
			cede_province = H39
		}
		
		hidden_effect = {
			H39 = {
				country_event = { 
					id = anb_miscevents.7
					days = 30
				}
			}
		}
		
		adventurer_spawnable_starting_bonus = { tag = H39 }
		switch_tag = H39
	}
}

#Asraport
country_event = {
	id = aelantirspawnables.11
	title = aelantirspawnables.11.t
	desc = aelantirspawnables.11.d
	picture = CARIBBEAN_PIRATE_FORT_eventPicture
	
	fire_only_once = yes
	
	trigger = {
		owns = 912 #Anvilwright
		has_global_flag = new_world_discovered
		is_year = 1500
		wanderers_gate_area = {
			is_empty = yes
			
			#has_discovered = ROOT
			
			has_empty_adjacent_province = yes
		}
	}
	
	mean_time_to_happen = {
		months = 360
			
		modifier = {
			factor = 0.5
			any_country = {
				capital_scope = { continent = europe }
				has_discovered = 1058
			}
		}
		modifier = {
			factor = 0.5
			is_year = 1530
		}
	}
	
	immediate = {
		hidden_effect = {
			random_province = {
				limit = {
					area = wanderers_gate_area
					is_empty = yes
					
					has_empty_adjacent_province = yes
					
				}
				
				save_event_target_as = spawn_province
			}
			
			random_province = {
				limit = {
					area = wanderers_gate_area
					is_empty = yes
					
					has_empty_adjacent_province = yes
					
					has_port = yes
				}
				
				save_event_target_as = spawn_province
			}		

			random_province = {
				limit = {
					area = wanderers_gate_area
					is_empty = yes
					
					has_empty_adjacent_province = yes
					
					province_id = 1058
				}
				
				save_event_target_as = spawn_province
			}
		}
	}
	
	option = {
		name = aelantirspawnables.1.a 
		
		event_target:spawn_province = {
			create_colony = 1000
		}
		
		event_target:spawn_province = {
			cede_province = G90
		}
		
		hidden_effect = {
			G90 = {
				country_event = { 
					id = anb_miscevents.7
					days = 30
				}
			}
		}
		
		adventurer_spawnable_starting_bonus = { tag = H90 }
	}
	
	option = { # play as the pirates
		name = aelantirspawnables.1.b
		trigger = {
			ai = no
		}
		event_target:spawn_province = {
			create_colony = 1000
		}
		
		event_target:spawn_province = {
			cede_province = G90
		}
		
		hidden_effect = {
			G90 = {
				country_event = { 
					id = anb_miscevents.7
					days = 30
				}
			}
		}
		
		adventurer_spawnable_starting_bonus = { tag = G90 }
		switch_tag = G90
	}
}

#Isobelin
country_event = {
	id = aelantirspawnables.12
	title = aelantirspawnables.12.t
	desc = aelantirspawnables.12.d
	picture = CARIBBEAN_PIRATE_FORT_eventPicture
	
	fire_only_once = yes
	
	trigger = {
		owns = 33 #Toarnaire
		has_global_flag = new_world_discovered
		is_year = 1500
		coast_of_isobel_area = {
			is_empty = yes
			
			#has_discovered = ROOT
			
			has_empty_adjacent_province = yes
		}
	}
	
	mean_time_to_happen = {
		months = 360
			
		modifier = {
			factor = 0.5
			any_country = {
				capital_scope = { continent = europe }
				has_discovered = 2197
			}
		}
		modifier = {
			factor = 0.5
			is_year = 1550
		}
	}
	
	immediate = {
		hidden_effect = {
			random_province = {
				limit = {
					area = coast_of_isobel_area
					is_empty = yes
					
					has_empty_adjacent_province = yes
					
				}
				
				save_event_target_as = spawn_province
			}
			
			random_province = {
				limit = {
					area = coast_of_isobel_area
					is_empty = yes
					
					has_empty_adjacent_province = yes
					
					has_port = yes
				}
				
				save_event_target_as = spawn_province
			}		

			random_province = {
				limit = {
					area = coast_of_isobel_area
					is_empty = yes
					
					has_empty_adjacent_province = yes
					
					province_id = 2197
				}
				
				save_event_target_as = spawn_province
			}
		}
	}
	
	option = {
		name = aelantirspawnables.1.a 
		
		event_target:spawn_province = {
			create_colony = 1000
		}
		
		event_target:spawn_province = {
			cede_province = G91
		}
		
		hidden_effect = {
			G91 = {
				country_event = { 
					id = anb_miscevents.7
					days = 30
				}
				define_ruler = {
					name = "Isobel"
					dynasty = "síl Isobelin"
					adm = 5
					dip = 6
					mil = 2
					age = 48
					claim = 95
					female = yes
					fixed = yes
				}
			}
		}
		
		adventurer_spawnable_starting_bonus = { tag = G91 }
	}
	
	option = { # play as the pirates
		name = aelantirspawnables.1.b
		trigger = {
			ai = no
		}
		event_target:spawn_province = {
			create_colony = 1000
		}
		
		event_target:spawn_province = {
			cede_province = G91
		}
		
		hidden_effect = {
			G91 = {
				country_event = { 
					id = anb_miscevents.7
					days = 30
				}
				define_ruler = {
					name = "Isobel"
					dynasty = "síl Isobelin"
					adm = 5
					dip = 6
					mil = 2
					age = 48
					claim = 95
					fixed = yes
				}
			}
		}
		
		adventurer_spawnable_starting_bonus = { tag = G91 }
		switch_tag = G91
	}
}

#Saamirses
country_event = {
	id = aelantirspawnables.13
	title = aelantirspawnables.13.t
	desc = aelantirspawnables.13.d
	picture = CARIBBEAN_PIRATE_FORT_eventPicture
	
	fire_only_once = yes
	
	trigger = {
		owns = 601 #Bulwar
		NOT = { has_country_modifier = monstrous_nation }
		has_global_flag = new_world_discovered
		is_year = 1500
		saamirses_area = {
			is_empty = yes
			
			#has_discovered = ROOT
			
			has_empty_adjacent_province = yes
		}
	}
	
	mean_time_to_happen = {
		months = 360
		
		modifier = {
			factor = 0.5
			any_country = {
				capital_scope = { continent = europe }
				has_discovered = 1099
			}
		}
		modifier = {
			factor = 0.5
			is_year = 1530
		}
	}
	
	immediate = {
		hidden_effect = {
		random_province = {
			limit = {
				area = saamirses_area
				is_empty = yes
				
				has_empty_adjacent_province = yes
				
			}
			
			save_event_target_as = spawn_province
		}
		
		random_province = {
			limit = {
				area = saamirses_area
				is_empty = yes
				
				has_empty_adjacent_province = yes
				
				has_port = yes
			}
			
			save_event_target_as = spawn_province
		}		

		random_province = {
			limit = {
				area = saamirses_area
				is_empty = yes
				
				has_empty_adjacent_province = yes
				
				province_id = 1099
			}
			
			save_event_target_as = spawn_province
		}
		}
	}
	
	option = {
		name = aelantirspawnables.1.a 
		
		event_target:spawn_province = {
			create_colony = 1000
		}
		
		event_target:spawn_province = {
			cede_province = G92
		}
		
		hidden_effect = {
			G92 = {
				country_event = { 
					id = anb_miscevents.7
					days = 30
				}
			}
		}
		
		adventurer_spawnable_starting_bonus = { tag = G92 }
	}
	
	option = { # play as the pirates
		name = aelantirspawnables.1.b
		trigger = {
			ai = no
		}
		event_target:spawn_province = {
			create_colony = 1000
		}
		
		event_target:spawn_province = {
			cede_province = G92
		}
		
		hidden_effect = {
			G92 = {
				country_event = { 
					id = anb_miscevents.7
					days = 30
				}
			}
		}
		
		adventurer_spawnable_starting_bonus = { tag = G92 }
		switch_tag = G92
	}
}

#Mykx
country_event = {
	id = aelantirspawnables.14
	title = aelantirspawnables.14.t
	desc = aelantirspawnables.14.d
	picture = CARIBBEAN_PIRATE_FORT_eventPicture
	
	fire_only_once = yes
	
	trigger = {
		owns = 393 #Jabal Shammar
		has_global_flag = new_world_discovered
		is_year = 1500
		arears1_area = {
			is_empty = yes
			
			#has_discovered = ROOT
			
			has_empty_adjacent_province = yes
		}
	}
	
	mean_time_to_happen = {
		months = 360
		
		modifier = {
			factor = 0.5
			any_country = {
				capital_scope = { continent = europe }
				has_discovered = 1075
			}
		}
		modifier = {
			factor = 0.5
			is_year = 1530
		}
	}
	
	immediate = {
		hidden_effect = {
			random_province = {
				limit = {
					area = arears1_area
					is_empty = yes
					
					has_empty_adjacent_province = yes
					
				}
				
				save_event_target_as = spawn_province
			}
			
			random_province = {
				limit = {
					area = arears1_area
					is_empty = yes
					
					has_empty_adjacent_province = yes
					
					has_port = yes
				}
				
				save_event_target_as = spawn_province
			}		

			random_province = {
				limit = {
					area = arears1_area
					is_empty = yes
					
					has_empty_adjacent_province = yes
					
					province_id = 1075
				}
				
				save_event_target_as = spawn_province
			}
		}
	}
	
	option = {
		name = aelantirspawnables.1.a 
		
		event_target:spawn_province = {
			create_colony = 1000
		}
		
		event_target:spawn_province = {
			cede_province = G93
		}
		
		hidden_effect = {
			G93 = {
				country_event = { 
					id = anb_miscevents.7
					days = 30
				}
				define_ruler = {
					name = "Mykx"
					dynasty = "of Mykx"
					adm = 4
					dip = 1
					mil = 5
					age = 37
					claim = 95
					female = yes
					fixed = yes
				}
			}
		}
		
		adventurer_spawnable_starting_bonus = { tag = G93 }
	}
	
	option = { # play as the pirates
		name = aelantirspawnables.1.b
		trigger = {
			ai = no
		}
		event_target:spawn_province = {
			create_colony = 1000
		}
		
		event_target:spawn_province = {
			cede_province = G93
		}
		
		hidden_effect = {
			G93 = {
				country_event = { 
					id = anb_miscevents.7
					days = 30
				}
				define_ruler = {
					name = "Mykx"
					dynasty = "of Mykx"
					adm = 4
					dip = 1
					mil = 5
					age = 37
					claim = 95
					female = yes
					fixed = yes
				}
			}
		}
		
		adventurer_spawnable_starting_bonus = { tag = G93 }
		switch_tag = G93
	}
}

#Balgabar
country_event = {
	id = aelantirspawnables.15
	title = aelantirspawnables.15.t
	desc = aelantirspawnables.15.d
	picture = CARIBBEAN_PIRATE_FORT_eventPicture
	
	fire_only_once = yes
	
	trigger = {
		owns = 833 #North Castonath
		NOT = { has_country_modifier = monstrous_nation }
		has_global_flag = new_world_discovered
		current_age = age_of_reformation
		balgabar_area = {
			is_empty = yes
			
			#has_discovered = ROOT
			
			has_empty_adjacent_province = yes
		}
	}
	
	mean_time_to_happen = {
		months = 360
		
		modifier = {
			factor = 0.5
			any_country = {
				capital_scope = { continent = europe }
				has_discovered = 1159
			}
		}
		modifier = {
			factor = 0.5
			is_year = 1560
		}
	}
	
	immediate = {
		hidden_effect = {
			random_province = {
				limit = {
					area = balgabar_area
					is_empty = yes
					
					has_empty_adjacent_province = yes
					
				}
				
				save_event_target_as = spawn_province
			}
			

			random_province = {
				limit = {
					area = balgabar_area
					is_empty = yes
					
					has_empty_adjacent_province = yes
					
					province_id = 1159
				}
				
				save_event_target_as = spawn_province
			}
		}
	}
	
	option = {
		name = aelantirspawnables.1.a 
		
		event_target:spawn_province = {
			create_colony = 1000
		}
		
		event_target:spawn_province = {
			cede_province = G94
		}
		
		hidden_effect = {
			G94 = {
				country_event = { 
					id = anb_miscevents.7
					days = 30
				}
			}
		}
		
		adventurer_spawnable_starting_bonus = { tag = G94 }
	}
	
	option = { # play as the pirates
		name = aelantirspawnables.1.b
		trigger = {
			ai = no
		}
		event_target:spawn_province = {
			create_colony = 1000
		}
		
		event_target:spawn_province = {
			cede_province = G94
		}
		
		hidden_effect = {
			G94 = {
				country_event = { 
					id = anb_miscevents.7
					days = 30
				}
			}
		}
		
		adventurer_spawnable_starting_bonus = { tag = G94 }
		switch_tag = G94
	}
}

#Marlliande
country_event = {
	id = aelantirspawnables.16
	title = aelantirspawnables.16.t
	desc = aelantirspawnables.16.d
	picture = CARIBBEAN_PIRATE_FORT_eventPicture
	
	fire_only_once = yes
	
	trigger = {
		owns = 904 #Arannen
		has_global_flag = new_world_discovered
		is_year = 1500
		OR = {
			marlliande_area = {
				is_empty = yes
				
				#has_discovered = ROOT
				
				has_empty_adjacent_province = yes
			}
			areatb16_area = {
				is_empty = yes
				
				#has_discovered = ROOT
				
				has_empty_adjacent_province = yes
			}
		}
	}
	
	mean_time_to_happen = {
		months = 360
		
		modifier = {
			factor = 0.5
			any_country = {
				capital_scope = { continent = europe }
				has_discovered = 1024
			}
		}
		modifier = {
			factor = 0.5
			is_year = 1530
		}
	}
	
	immediate = {
		hidden_effect = {
			random_province = {
				limit = {
					area = areatb16_area
					is_empty = yes
					
					has_empty_adjacent_province = yes
					
				}
				
				save_event_target_as = spawn_province
			}
			
			random_province = {
				limit = {
					area = marlliande_area
					is_empty = yes
					
					has_empty_adjacent_province = yes
					
				}
				
				save_event_target_as = spawn_province
			}
			
			random_province = {
				limit = {
					area = areatb16_area
					is_empty = yes
					
					has_empty_adjacent_province = yes
					
					has_port = yes
				}
				
				save_event_target_as = spawn_province
			}		
			
			random_province = {
				limit = {
					area = marlliande_area
					is_empty = yes
					
					has_empty_adjacent_province = yes
					
					has_port = yes
				}
				
				save_event_target_as = spawn_province
			}		

			random_province = {
				limit = {
					area = marlliande_area
					is_empty = yes
					
					has_empty_adjacent_province = yes
					
					province_id = 1024
				}
				
				save_event_target_as = spawn_province
			}
		}
	}
	
	option = {
		name = aelantirspawnables.1.a 
		
		event_target:spawn_province = {
			create_colony = 1000
		}
		
		event_target:spawn_province = {
			cede_province = G95
		}
		
		hidden_effect = {
			G95 = {
				country_event = { 
					id = anb_miscevents.7
					days = 30
				}
			}
		}
		
		adventurer_spawnable_starting_bonus = { tag = G95 }
	}
	
	option = { # play as the pirates
		name = aelantirspawnables.1.b
		trigger = {
			ai = no
		}
		event_target:spawn_province = {
			create_colony = 1000
		}
		
		event_target:spawn_province = {
			cede_province = G95
		}
		
		hidden_effect = {
			G95 = {
				country_event = { 
					id = anb_miscevents.7
					days = 30
				}
			}
		}
		
		adventurer_spawnable_starting_bonus = { tag = G95 }
		switch_tag = G95
	}
}

#Thilvis
country_event = {
	id = aelantirspawnables.17
	title = aelantirspawnables.17.t
	desc = aelantirspawnables.17.d
	picture = CARIBBEAN_PIRATE_FORT_eventPicture
	
	fire_only_once = yes
	
	trigger = {
		owns = 63 #South Viswall
		has_global_flag = new_world_discovered
		is_year = 1500
		OR = {
			thilsvis_area = {
				is_empty = yes
				
				#has_discovered = ROOT
				
				has_empty_adjacent_province = yes
			}
			areatb2_area = {
				is_empty = yes
				
				#has_discovered = ROOT
				
				has_empty_adjacent_province = yes
			}
		}
	}
	
	mean_time_to_happen = {
		months = 360
		
		modifier = {
			factor = 0.5
			any_country = {
				capital_scope = { continent = europe }
				has_discovered = 1037
			}
		}
		modifier = {
			factor = 0.5
			is_year = 1530
		}
	}
	
	immediate = {
		hidden_effect = {
			random_province = {
				limit = {
					area = areatb2_area
					is_empty = yes
					
					has_empty_adjacent_province = yes
					
				}
				
				save_event_target_as = spawn_province
			}
			
			random_province = {
				limit = {
					area = thilsvis_area
					is_empty = yes
					
					has_empty_adjacent_province = yes
					
				}
				
				save_event_target_as = spawn_province
			}
			
			random_province = {
				limit = {
					area = areatb2_area
					is_empty = yes
					
					has_empty_adjacent_province = yes
					
					has_port = yes
				}
				
				save_event_target_as = spawn_province
			}
			
			random_province = {
				limit = {
					area = thilsvis_area
					is_empty = yes
					
					has_empty_adjacent_province = yes
					
					has_port = yes
				}
				
				save_event_target_as = spawn_province
			}		

			random_province = {
				limit = {
					area = thilsvis_area
					is_empty = yes
					
					has_empty_adjacent_province = yes
					
					province_id = 1037
				}
				
				save_event_target_as = spawn_province
			}
		}
	}
	
	option = {
		name = aelantirspawnables.1.a 
		
		event_target:spawn_province = {
			create_colony = 1000
		}
		
		event_target:spawn_province = {
			cede_province = G96
		}
		
		hidden_effect = {
			G96 = {
				country_event = { 
					id = anb_miscevents.7
					days = 30
				}
			}
		}
		
		adventurer_spawnable_starting_bonus = { tag = G96 }
	}
	
	option = { # play as the pirates
		name = aelantirspawnables.1.b
		trigger = {
			ai = no
		}
		event_target:spawn_province = {
			create_colony = 1000
		}
		
		event_target:spawn_province = {
			cede_province = G96
		}
		
		hidden_effect = {
			G96 = {
				country_event = { 
					id = anb_miscevents.7
					days = 30
				}
			}
		}
		
		adventurer_spawnable_starting_bonus = { tag = G96 }
		switch_tag = G96
	}
}

#Vanbury Guild
country_event = {
	id = aelantirspawnables.18
	title = aelantirspawnables.18.t
	desc = aelantirspawnables.18.d
	picture = CARIBBEAN_PIRATE_FORT_eventPicture
	
	fire_only_once = yes
	
	trigger = {
		owns = 911 #Telgeir
		has_global_flag = new_world_discovered
		is_year = 1500
		north_vanburia_area = {
			is_empty = yes
			
			#has_discovered = ROOT
			
			has_empty_adjacent_province = yes
		}
	}
	
	mean_time_to_happen = {
		months = 360
		
		modifier = {
			factor = 0.5
			any_country = {
				capital_scope = { continent = europe }
				has_discovered = 2164
			}
		}
		modifier = {
			factor = 0.5
			is_year = 1550
		}
	}
	
	immediate = {
		hidden_effect = {
			random_province = {
				limit = {
					area = north_vanburia_area
					is_empty = yes
					
					has_empty_adjacent_province = yes
					
				}
				
				save_event_target_as = spawn_province
			}
			
			random_province = {
				limit = {
					area = north_vanburia_area
					is_empty = yes
					
					has_empty_adjacent_province = yes
					
					has_port = yes
				}
				
				save_event_target_as = spawn_province
			}		

			random_province = {
				limit = {
					area = north_vanburia_area
					is_empty = yes
					
					has_empty_adjacent_province = yes
					
					province_id = 2164
				}
				
				save_event_target_as = spawn_province
			}
			
			if = {
				limit = {
					OR = {
						AND = {
							tag = A62 # Telgeir
							religion = corinite
						}
						AND = {
							NOT = { tag = A62 }
							911 = { religion = corinite }
						}
					}
				}
				G97 = { change_religion = corinite }
			}
		}
	}
	
	option = {
		name = aelantirspawnables.1.a 
		
		event_target:spawn_province = {
			create_colony = 1000
		}
		
		event_target:spawn_province = {
			cede_province = G97
		}
		
		hidden_effect = {
			G97 = {
				country_event = { 
					id = anb_miscevents.7
					days = 30
				}
			}
		}
		
		adventurer_spawnable_starting_bonus = { tag = G97 }
	}
	
	option = { # play as the pirates
		name = aelantirspawnables.1.b
		trigger = {
			ai = no
		}
		event_target:spawn_province = {
			create_colony = 1000
		}
		
		event_target:spawn_province = {
			cede_province = G97
		}
		
		hidden_effect = {
			G97 = {
				country_event = { 
					id = anb_miscevents.7
					days = 30
				}
			}
		}
		
		adventurer_spawnable_starting_bonus = { tag = G97 }
		switch_tag = G97
	}
}

#Calasanni Trading Company
country_event = {
	id = aelantirspawnables.19
	title = aelantirspawnables.19.t
	desc = aelantirspawnables.19.d
	picture = CARIBBEAN_PIRATE_FORT_eventPicture
	
	fire_only_once = yes
	
	trigger = {
		owns = 254 #Calascandar
		has_global_flag = new_world_discovered
		is_year = 1500
		arears4_area = {
			is_empty = yes
			
			#has_discovered = ROOT
			
			has_empty_adjacent_province = yes
		}
	}
	
	mean_time_to_happen = {
		months = 360
		
		modifier = {
			factor = 0.5
			any_country = {
				capital_scope = { continent = europe }
				has_discovered = 1086
			}
		}
		modifier = {
			factor = 0.5
			is_year = 1550
		}
	}
	
	immediate = {
		hidden_effect = {
			random_province = {
				limit = {
					area = arears4_area
					is_empty = yes
					
					has_empty_adjacent_province = yes
					
				}
				
				save_event_target_as = spawn_province
			}
			
			random_province = {
				limit = {
					area = arears4_area
					is_empty = yes
					
					has_empty_adjacent_province = yes
					
					has_port = yes
				}
				
				save_event_target_as = spawn_province
			}		

			random_province = {
				limit = {
					area = arears4_area
					is_empty = yes
					
					has_empty_adjacent_province = yes
					
					province_id = 1086
				}
				
				save_event_target_as = spawn_province
			}
		}
	}
	
	option = {
		name = aelantirspawnables.1.a 
		
		event_target:spawn_province = {
			create_colony = 1000
		}
		
		event_target:spawn_province = {
			cede_province = G98
		}
		
		hidden_effect = {
			G98 = {
				country_event = { 
					id = anb_miscevents.7
					days = 30
				}
			}
		}
		
		adventurer_spawnable_starting_bonus = { tag = G98 }
	}
	
	option = { # play as the pirates
		name = aelantirspawnables.1.b
		trigger = {
			ai = no
		}
		event_target:spawn_province = {
			create_colony = 1000
		}
		
		event_target:spawn_province = {
			cede_province = G98
		}
		
		hidden_effect = {
			G98 = {
				country_event = { 
					id = anb_miscevents.7
					days = 30
				}
			}
		}
		
		adventurer_spawnable_starting_bonus = { tag = G98 }
		switch_tag = G98
	}
}

#Deranne Trade Company
country_event = {
	id = aelantirspawnables.20
	title = aelantirspawnables.20.t
	desc = aelantirspawnables.20.d
	picture = CARIBBEAN_PIRATE_FORT_eventPicture
	
	fire_only_once = yes
	
	trigger = {
		owns = 113 #Deranne
		has_global_flag = new_world_discovered
		is_year = 1500
		OR = {
			areaae1_area = {
				is_empty = yes
				
				#has_discovered = ROOT
				
				has_empty_adjacent_province = yes
			}
			arears12_area = {
				is_empty = yes
				
				#has_discovered = ROOT
				
				has_empty_adjacent_province = yes
			}
		}
	}
	
	mean_time_to_happen = {
		months = 360
		
		modifier = {
			factor = 0.5
			any_country = {
				capital_scope = { continent = europe }
				has_discovered = 927
			}
		}
		modifier = {
			factor = 0.5
			is_year = 1550
		}
	}
	
	immediate = {
		hidden_effect = {
			random_province = {
				limit = {
					area = arears12_area
					is_empty = yes
					
					has_empty_adjacent_province = yes
					
				}
				
				save_event_target_as = spawn_province
			}
			
			random_province = {
				limit = {
					area = areaae1_area
					is_empty = yes
					
					has_empty_adjacent_province = yes
					
				}
				
				save_event_target_as = spawn_province
			}
			
			random_province = {
				limit = {
					area = arears12_area
					is_empty = yes
					
					has_empty_adjacent_province = yes
					
					has_port = yes
				}
				
				save_event_target_as = spawn_province
			}	
			
			random_province = {
				limit = {
					area = areaae1_area
					is_empty = yes
					
					has_empty_adjacent_province = yes
					
					has_port = yes
				}
				
				save_event_target_as = spawn_province
			}		

			random_province = {
				limit = {
					area = areaae1_area
					is_empty = yes
					
					has_empty_adjacent_province = yes
					
					province_id = 927
				}
				
				save_event_target_as = spawn_province
			}
		}
	}
	
	option = {
		name = aelantirspawnables.1.a 
		
		event_target:spawn_province = {
			create_colony = 1000
		}
		
		event_target:spawn_province = {
			cede_province = G99
		}
		
		hidden_effect = {
			G99 = {
				country_event = { 
					id = anb_miscevents.7
					days = 30
				}
			}
		}
		
		adventurer_spawnable_starting_bonus = { tag = G99 }
	}
	
	option = { # play as the pirates
		name = aelantirspawnables.1.b
		trigger = {
			ai = no
		}
		event_target:spawn_province = {
			create_colony = 1000
		}
		
		event_target:spawn_province = {
			cede_province = G99
		}
		
		hidden_effect = {
			G99 = {
				country_event = { 
					id = anb_miscevents.7
					days = 30
				}
			}
		}
		
		adventurer_spawnable_starting_bonus = { tag = G99 }
		switch_tag = G99
	}
}