
namespace = rezankand

#Dynasty Naming
country_event = {
	id = rezankand.1
	title = dynasty_setup.1.t
	desc = dynasty_setup.1.d
	picture = {
		trigger = {
			NOT = { has_dlc = "Rights of Man" }
		}
		picture = COURT_eventPicture
	}
	picture = {
		trigger = {
			has_dlc = "Rights of Man"
		}
		picture = ROYAL_COUPLE_FUTURE_eventPicture
	}
	
	fire_only_once = yes
	is_triggered_only = yes
	
	trigger = {
		tag = H67
	}
	
	#New Dynasty Name after country
	option = {		
		name = "rezankand.1.a"
		ai_chance = { factor = 50 }	
		define_heir = {
			dynasty = "Rezanzuir"
			age = 60
			male = yes
			adm = 2
			dip = 2
			mil = 2
			hide_skills = yes
		}
	}
}

# Explain culture shift to Dawn Elf
country_event = {
	id = rezankand.2
	title = rezankand.2.t
	desc = rezankand.2.d
	picture = COURT_eventPicture
	
	fire_only_once = yes
	
	is_triggered_only = yes
	
	trigger = {
		always = yes
	}
	
	option = {		
		name = rezankand.2.a
		ai_chance = { factor = 100 }	
		
		set_country_flag = rezankand_dawn_elf
	}
}

# Change culture to Dawn Elf, embracing your destiny
country_event = {
	id = rezankand.3
	title = rezankand.3.t
	desc = rezankand.3.d
	picture = COURT_eventPicture
	
	fire_only_once = yes
	
	is_triggered_only = yes
	
	trigger = {
		always = yes
	}
	
	option = {		
		name = rezankand.3.a
		ai_chance = { factor = 100 }	
		
		change_primary_culture = dawn_elf
		set_heir_culture = dawn_elf
		set_ruler_culture = dawn_elf
		set_consort_culture = dawn_elf
		every_owned_province = {
			random = {
				chance = 90
				
				change_culture = dawn_elf
			}
		}
	}
}

# Gain new leader, powerful mage
country_event = {
	id = rezankand.4
	title = rezankand.4.t
	desc = rezankand.4.d
	picture = COURT_eventPicture
	
	fire_only_once = yes
	
	is_triggered_only = yes
	
	trigger = {
		always = yes
	}
	
	option = {		
		name = rezankand.4.a
		ai_chance = { factor = 100 }	
		
		define_ruler = {
			name = "Ilvisar"
			dynasty = "Rezanzuir"
			adm = 5
			dip = 5
			mil = 5
			age = 195
			male = yes
			claim = 100
		}
		add_ruler_personality = mage_personality
	}
	option = {		
		name = rezankand.4.b
		ai_chance = { factor = 100 }
	}
}

# Lorizan of Haraf
country_event = {
	id = rezankand.5
	title = rezankand.5.t
	desc = rezankand.5.d
	picture = COURT_eventPicture
	
	fire_only_once = yes
	
	is_triggered_only = yes
	
	trigger = {
		always = yes
	}
	
	option = {		
		name = rezankand.5.a
		ai_chance = { factor = 100 }	
		
		define_conquistador = {
			name = "Lorizan of Haraf"
			shock = 4
			fire = 6
			manuever = 7
			siege = 2
		}
	}
}

# The leaf path
country_event = {
	id = rezankand.6
	title = rezankand.6.t
	desc = rezankand.6.d
	picture = COURT_eventPicture
	
	fire_only_once = yes
	
	is_triggered_only = yes
	
	trigger = {
		always = yes
	}
	
	option = {		
		name = rezankand.6.a
		ai_chance = { factor = 100 }	
		
		south_effelai_region = {
			add_permanent_province_modifier = {
				name = rezankand_leaf_path
				duration = -1
			}
		}
	}
}

# Preparing the great expedition
country_event = {
	id = rezankand.7
	title = rezankand.7.t
	desc = rezankand.7.d
	picture = COURT_eventPicture
	
	fire_only_once = yes
	
	is_triggered_only = yes
	
	trigger = {
		always = yes
	}
	
	option = {		
		name = rezankand.7.a
		ai_chance = { factor = 100 }	
		
		set_country_flag = rezankand_expedition_ready
	}
}

# A Sunny Day
country_event = {
	id = rezankand.8
	title = rezankand.8.t
	desc = rezankand.8.d
	picture = COURT_eventPicture
	
	fire_only_once = yes
	
	is_triggered_only = yes
	
	trigger = {
		always = yes
	}
	
	option = {		
		name = rezankand.8.a
		ai_chance = { factor = 100 }	
		
		add_country_modifier = {
			name = rezankand_sunny_day
			duration = -1
		}
	}
}

# Jungle colonization
country_event = {
	id = rezankand.9
	title = rezankand.9.t
	desc = rezankand.9.d
	picture = COURT_eventPicture
	
	hidden = yes
	
	mean_time_to_happen = {
		months = 1
	}
	
	trigger = {
		tag = H67
		has_country_flag = rezankand_jungle_research
	}
	
	option = {		
		name = rezankand.9.a
		ai_chance = { factor = 100 }	
		
		random_owned_province = {
			limit = { 
				is_city = no 
				has_terrain = jungle
			}
			add_province_modifier = {
				name = rezankand_jungle_specialist
				duration = 3650
			}
		}
	}
}

# Sun temple construction started
country_event = {
	id = rezankand.10
	title = rezankand.10.t
	desc = rezankand.10.d
	picture = COURT_eventPicture
	
	fire_only_once = yes
	
	is_triggered_only = yes
	
	trigger = {
		always = yes
	}
	
	option = {		
		name = rezankand.10.a
		ai_chance = { factor = 100 }	
		
		country_event = { id = rezankand.11 days = 3650 random = 1200}
	}
}

# Sun temple construction ended
country_event = {
	id = rezankand.11
	title = rezankand.11.t
	desc = rezankand.11.d
	picture = COURT_eventPicture
	
	fire_only_once = yes
	
	is_triggered_only = yes
	
	trigger = {
		always = yes
	}
	
	option = {		
		name = rezankand.11.a
		ai_chance = { factor = 100 }	
		
		2378 = {
			add_province_modifier = {
				name = rezankand_sun_temple
				duration = -1
			}
		}
		hidden_effect = {
			set_country_flag = rezankand_sword_can
		}
	}
}

# Immigration from Bulwar
province_event = {
	id = rezankand.12
	title = rezankand.12.t
	desc = rezankand.12.d
	picture = COURT_eventPicture
	
	mean_time_to_happen = {
		years = 20
		
		modifier = {
			factor = 0.5
			
			has_province_modifier = rezankand_sunny_road
		}
		
		modifier = {
			factor = 0.8
		
			is_capital = yes
		}
		
		modifier = {
			factor = 0.8
			
			NOT = { development = 10 }
		}
		
		modifier = {
			factor = 2
			
			development = 20
		}
		
		modifier = {
			factor = 4
			
			development = 1600
		}
		
		modifier = {
			factor = 4
			
			development = 1650
		}
	}
	
	trigger = {
		OR = {
			owned_by = H67
			owned_by = H66
		}
		has_port = yes
		colonial_region = colonial_lai_peninsula
		NOT = { is_year = 1700 }
		NOT = { has_province_modifier = rezankand_recent_immigration }
	}

	option = {		
		name = rezankand.12.a
		ai_chance = { factor = 100 }	
		
		if = {
			limit = { is_city = no }
			add_colonysize = 300
		}
		else = {
			add_base_production = 1
			add_base_tax = 1
			add_base_manpower = 1
			if = {
				limit = { has_country_flag = rezankand_cortez_conquest }
				add_province_modifier = {
					name = rezankand_recent_immigration 
					duration = 2190
				}
			}
			else = {
				add_province_modifier = {
					name = rezankand_recent_immigration 
					duration = 3650
				}
			}
		}
	}
}


# New government
country_event = {
	id = rezankand.13
	title = rezankand.13.t
	desc = rezankand.13.d
	picture = COURT_eventPicture
	
	fire_only_once = yes
	
	is_triggered_only = yes
	
	trigger = {
		always = yes
	}
	
	option = {		
		name = rezankand.13.a
		ai_chance = { factor = 100 }	
		
		hidden_effect = {
			set_country_flag = rezankand_can_forge_sword
			set_country_flag = rezankand_government
		}
		change_government = theocracy
		set_dynasty = "Rezanzuir"
		add_government_reform = rezankand_reform 
	}
}

# Make vassal autonomous vassal
country_event = {
	id = rezankand.14
	title = rezankand.14.t
	desc = rezankand.14.d
	picture = COURT_eventPicture
	
	
	mean_time_to_happen = {
		months = 1
	}
	
	trigger = {
		tag = H67
		has_country_flag = rezankand_subjugation
		any_subject_country = {
			is_subject_of_type = vassal
			NOT = { has_country_flag = rezankand_subjugated }
		}
	}
	#We make them autonomous vassal
	option = {		
		name = rezankand.14.a
		ai_chance = { factor = 100 }	
		
		random_subject_country = {
			limit = { 
				NOT = { has_country_flag = rezankand_subjugated } 
				is_subject_of_type = vassal
			}
			set_country_flag = rezankand_subjugated
			ROOT = {
				create_subject = {
					subject_type = autonomous_vassal
					subject = PREV
				}
			}
		}
	}
	#They stay normal vassal
	option = {		
		name = rezankand.14.b
		ai_chance = { factor = 100 }	
		
		add_stability = -2
		add_corruption = 5
	}
}

###Shit to help the AI
country_event = {
	id = rezankand.100
	title = rezankand.14.t
	desc = rezankand.14.d
	picture = COURT_eventPicture
	
	fire_only_once = yes
	hidden = yes
	
	mean_time_to_happen = {
		days = 1
	}
	
	trigger = {
		tag = H66
		ai = yes
		capital_scope = { has_empty_adjacent_province = yes }
	}
	#starting bonus
	option = {		
		name = rezankand.14.a
		ai_chance = { factor = 100 }	
		
		capital_scope = {
			random_empty_neighbor_province = {
				create_colony = 1000
				change_trade_goods = gold
				add_base_production = 5
			}
			change_trade_goods = gems
			add_base_production = 3
			add_base_tax = 3
			add_base_manpower = 3
		}
		add_country_modifier = {
			name = rezankand_ai_help
			duration = 14600
		}
	}
}


